v 119.6333 1.189765E-07 -3043.26
vn 0.4997504 0.995918 0
vt 0.5001035 0.9155801
v 431.4958 1.177541E-07 -2690.752
vn 0.4389586 0.9913777 0
vt 0.453877 0.9103049
v 483.4453 1.186272E-07 -3056.473
vn 0.437836 0.9960667 0
vt 0.452519 0.9227164
v 107.1387 1.186272E-07 -2683.754
vn 0.5021558 0.9912747 0
vt 0.501972 0.9032377
v -240.5607 1.191511E-07 -2994.405
vn 0.5623903 0.9953564 0
vt 0.5480503 0.9073119
v -219.3012 1.190638E-07 -2640.929
vn 0.5670694 0.9906318 0
vt 0.5511664 0.8946289
v 136.8889 1.191511E-07 -3401.729
vn 0.4971546 0.9995213 0
vt 0.4980645 0.9254045
v 538.0476 1.190638E-07 -3421.774
vn 0.4365565 0.9996993 0
vt 0.4511306 0.9325457
v -251.0199 1.191947E-07 -3346.75
vn 0.5571006 0.9990214 0
vt 0.5443114 0.9175068
v -604.2794 1.192093E-07 -2917.119
vn 0.6291748 0.9944269 0
vt 0.5988412 0.8976905
v -554.0012 1.192093E-07 -2565.72
vn 0.6377709 0.989447 0
vt 0.6043471 0.884083
v -969.7604 1.192093E-07 -2825.618
vn 0.7012107 0.9932569 0
vt 0.6531949 0.8869579
v -940.6521 1.192093E-07 -2455.292
vn 0.72748 0.9875666 0
vt 0.6711002 0.869885
v -1008.465 1.192093E-07 -3175.654
vn 0.6841494 0.9973487 0
vt 0.6414409 0.899299
v -631.5796 1.192093E-07 -3267.316
vn 0.6189275 0.9982677 0
vt 0.5917403 0.9087759
v -1053.566 1.192093E-07 -3512.162
vn 0.6722713 1.000476 0
vt 0.6332088 0.9087524
v -659.5013 1.192093E-07 -3610.369
vn 0.611077 1.001273 0
vt 0.5862312 0.9175608
v -1101.867 1.192093E-07 -3841.908
vn 0.66329 1.002985 0
vt 0.6269469 0.9163709
v -687.7338 1.192093E-07 -3949.851
vn 0.6047869 1.003711 0
vt 0.5817704 0.9247622
v -258.2638 1.192093E-07 -3696.757
vn 0.5524524 1.001938 0
vt 0.5409541 0.925783
v -263.9 1.192093E-07 -4045.593
vn 0.5484532 1.004322 0
vt 0.5380225 0.9326461
v 157.3186 1.192093E-07 -3759.505
vn 0.4946407 1.002401 0
vt 0.4960707 0.9334135
v 594.4183 1.192093E-07 -3786.796
vn 0.4352898 1.002597 0
vt 0.4498157 0.9405234
v 179.3353 1.192093E-07 -4116.936
vn 0.4923837 1.004758 0
vt 0.4942644 0.940063
v 651.6733 1.192093E-07 -4151.678
vn 0.4341435 1.004964 0
vt 0.4486421 0.9471241
v -674.9953 1.192093E-07 -2085.491
vn 0.7032044 0.9796957 0
vt 0.6506085 0.8532061
v -457.1454 1.192093E-07 -2219.061
vn 0.6378121 0.9828654 0
vt 0.6030458 0.8677106
v -530.6877 1.197041E-07 -1791.144
vn 0.6963084 0.9708732 0
vt 0.6430745 0.8330493
v -351.5207 1.195003E-07 -1890.05
vn 0.6339592 0.9741734 0
vt 0.5985273 0.8471451
v -432.8434 1.211884E-07 -1516.571
vn 0.7005523 0.9591813 0
vt 0.6429467 0.8060675
v -274.9358 1.203734E-07 -1591.596
vn 0.6355588 0.9628226 0
vt 0.5975901 0.8206709
v -361.9395 1.241569E-07 -1275.954
vn 0.7125652 0.9441875 0
vt 0.647305 0.7725781
v -217.5739 1.221197E-07 -1334.521
vn 0.6412101 0.9484047 0
vt 0.5989707 0.7883364
v -94.19742 1.186854E-07 -1637.42
vn 0.5709556 0.9648643 0
vt 0.5516002 0.8317903
v -60.97208 1.187145E-07 -1368.408
vn 0.5732256 0.9506575 0
vt 0.5519102 0.7997708
v 100.4024 1.159497E-07 -1656.145
vn 0.5058631 0.9656624 0
vt 0.5047666 0.840181
v 102.2886 1.143198E-07 -1379.922
vn 0.5064315 0.9513943 0
vt 0.5051542 0.8078752
v 299.8944 1.119915E-07 -1649.871
vn 0.4397938 0.9653972 0
vt 0.4570543 0.8462284
v 266.6308 1.09314E-07 -1371.367
vn 0.4394671 0.9508482 0
vt 0.4581374 0.8131987
v 338.964 1.143489E-07 -1972.542
vn 0.439902 0.9766499 0
vt 0.4560664 0.8731116
v 99.35851 1.17172E-07 -1975.393
vn 0.5051133 0.9767314 0
vt 0.5042229 0.8665485
v 383.0832 1.162989E-07 -2324.472
vn 0.4396398 0.9850902 0
vt 0.4550373 0.8941234
v 100.9922 1.180451E-07 -2322.864
vn 0.5039177 0.9850579 0
vt 0.5033239 0.887235
v -179.656 1.189183E-07 -2287.532
vn 0.5690416 0.9843357 0
vt 0.5520406 0.8785586
v -133.8723 1.187727E-07 -1948.324
vn 0.5695368 0.9759465 0
vt 0.5516047 0.857996
v 495.3093 1.066364E-07 -1620.701
vn 0.3725482 0.9641342 0
vt 0.4086 0.8500628
v 426.4772 1.040753E-07 -1345.051
vn 0.3714887 0.9491186 0
vt 0.4105933 0.816002
v 681.5282 1.016306E-07 -1572.52
vn 0.3031029 0.9619336 0
vt 0.3589301 0.8519136
v 578.2132 9.970972E-08 -1303.832
vn 0.3013045 0.9462489 0
vt 0.3619955 0.816493
v 802.5453 1.056469E-07 -1885.893
vn 0.3043425 0.9740423 0
vt 0.3563222 0.8807937
v 575.7363 1.099543E-07 -1941.059
vn 0.3732471 0.9757318 0
vt 0.4068899 0.8777859
v 664.9015 1.133885E-07 -2291.771
vn 0.3735123 0.9844236 0
vt 0.4053605 0.8994504
v 759.9476 1.162989E-07 -2658.479
vn 0.3733519 0.9908979 0
vt 0.4039122 0.9161324
v 1079.701 1.148437E-07 -2593.366
vn 0.3051654 0.9898911 0
vt 0.3521006 0.9208628
v 936.7684 1.104781E-07 -2230.619
vn 0.3050104 0.9831205 0
vt 0.3540855 0.9034078
v 1377.964 1.139706E-07 -2501.84
vn 0.2347336 0.9883809 0
vt 0.2988519 0.9245099
v 1189.006 1.087319E-07 -2146.873
vn 0.2341535 0.9812053 0
vt 0.3014143 0.9060465
v 1641.943 1.142616E-07 -2390.333
vn 0.1630779 0.9863734 0
vt 0.245107 0.9269732
v 1411.934 1.09314E-07 -2046.392
vn 0.1616623 0.9786826 0
vt 0.2480842 0.9073016
v 1858.846 1.162989E-07 -2265.272
vn 0.09220967 0.9838682 0
vt 0.1925619 0.928039
v 1595.876 1.133885E-07 -1935.035
vn 0.08925807 0.9755524 0
vt 0.1955813 0.9070029
v 2040.441 1.196458E-07 -2130.048
vn 0.01869038 0.9808009 0
vt 0.138805 0.9279179
v 1750.578 1.200824E-07 -1815.52
vn 0.01341763 0.9717233 0
vt 0.1415274 0.9053121
v 1197.751 1.039298E-07 -1724.294
vn 0.159386 0.9684055 0
vt 0.2516379 0.8819898
v 1351.888 1.098379E-07 -1627.757
vn 0.08508036 0.9644443 0
vt 0.1992888 0.88
v 1005.903 9.965152E-08 -1434.666
vn 0.1560656 0.954715 0
vt 0.255947 0.849858
v 1133.82 1.061708E-07 -1352.765
vn 0.07939187 0.9496335 0
vt 0.2039031 0.8457897
v 842.895 9.80217E-08 -1188.135
vn 0.1516184 0.9369598 0
vt 0.26111 0.8106429
v 948.6114 1.029111E-07 -1119.38
vn 0.07206464 0.9303735 0
vt 0.2095752 0.8040876
v 1243.323 1.16881E-07 -1265.347
vn -0.002947152 0.9433756 0
vt 0.1495001 0.8396922
v 1040.112 1.109438E-07 -1045.885
vn -0.01468748 0.9221974 0
vt 0.1552506 0.7950267
v 1482.509 1.19544E-07 -1524.589
vn 0.006352693 0.9595896 0
vt 0.1450037 0.8763449
v 2198.498 1.238659E-07 -1988.048
vn -0.06143928 0.9770902 0
vt 0.08110586 0.9268381
v 1885.786 1.285225E-07 -1690.566
vn -0.07001698 0.9670786 0
vt 0.08318189 0.902403
v 2344.785 1.285225E-07 -1842.659
vn -0.1529706 0.9726406 0
vt 0.01622686 0.9250797
v 2011.248 1.378357E-07 -1562.893
vn -0.1661994 0.9614757 0
vt 0.01724315 0.8984939
v 1597.452 1.317821E-07 -1416.999
vn -0.08120185 0.953675 0
vt 0.08605209 0.8711313
v 1704.557 1.452863E-07 -1307.197
vn -0.1831571 0.946491 0
vt 0.01910901 0.864499
v 1340.55 1.303852E-07 -1174.252
vn -0.09568679 0.9357021 0
vt 0.09003416 0.8315932
v 1122.135 1.210719E-07 -969.232
vn -0.1138445 0.9120796 0
vt 0.09546852 0.7833937
v 1431.639 1.452863E-07 -1081.318
vn -0.2049351 0.9263029 0
vt 0.02219635 0.8215359
v 1199.42 1.322478E-07 -890.9993
vn -0.2322564 0.8995527 0
vt 0.02696037 0.7691193
v 2698.242 1.229346E-07 -2140.751
vn -0.1425161 0.981059 0
vt 0.01579714 0.9458686
v 2528.532 1.210719E-07 -2302.538
vn -0.05483812 0.9846454 0
vt 0.07958123 0.9459251
v 2345.008 1.193839E-07 -2460.083
vn 0.02258134 0.9876519 0
vt 0.1366148 0.9455477
v 3066.64 1.201406E-07 -2452.587
vn -0.1342025 0.9875184 0
vt 0.01568338 0.9622744
v 2871.558 1.19675E-07 -2629.784
vn -0.04967827 0.9904606 0
vt 0.0784364 0.9610145
v 3444.997 1.192093E-07 -2773.586
vn -0.127557 0.9925548 0
vt 0.01572037 0.9753529
v 3223.245 1.192093E-07 -2965.534
vn -0.0455929 0.9950151 0
vt 0.0775553 0.9730827
v 3828.335 1.192093E-07 -3099.166
vn -0.1222312 0.9965379 0
vt 0.01580554 0.9858827
v 3579.263 1.192093E-07 -3305.536
vn -0.04232639 0.9986351 0
vt 0.0768581 0.9828373
v 2983.551 1.192093E-07 -3151.167
vn 0.02781349 0.9970936 0
vt 0.1333911 0.9706893
v 3310.175 1.192093E-07 -3504.462
vn 0.02962425 1.000411 0
vt 0.1322059 0.9797649
v 2660.604 1.192529E-07 -2801.749
vn 0.02552828 0.9929383 0
vt 0.1348391 0.9595005
v 2133.86 1.180451E-07 -2609.147
vn 0.0941973 0.99014 0
vt 0.1900319 0.9444095
v 1881.273 1.172302E-07 -2745.487
vn 0.1637966 0.992164 0
vt 0.2425345 0.9422382
v 2417.906 1.189183E-07 -2963.249
vn 0.09558365 0.9949878 0
vt 0.187914 0.9573742
v 2127.591 1.187145E-07 -3109.052
vn 0.164132 0.9966451 0
vt 0.2403286 0.95433
v 2707.973 1.192093E-07 -3324.169
vn 0.096591 0.9988109 0
vt 0.1861457 0.967795
v 3001.052 1.192093E-07 -3688.499
vn 0.0973607 1.001876 0
vt 0.1846772 0.9762763
v 2378.569 1.192093E-07 -3478.225
vn 0.1642693 1.000189 0
vt 0.2384538 0.9640706
v 2631.878 1.192093E-07 -3850.201
vn 0.1643232 1.003042 0
vt 0.2368793 0.9720247
v 1573.435 1.171138E-07 -2864.863
vn 0.234764 0.9937684 0
vt 0.2965646 0.9387798
v 1226.849 1.174631E-07 -2960.801
vn 0.3048647 0.9949585 0
vt 0.3502566 0.9342958
v 1773.789 1.186854E-07 -3233.927
vn 0.2345261 0.9979393 0
vt 0.2945544 0.9500787
v 1377.157 1.187727E-07 -3331.753
vn 0.3043596 0.9988819 0
vt 0.3485898 0.9449232
v 858.0182 1.180451E-07 -3026.829
vn 0.3727852 0.9957312 0
vt 0.4024609 0.9289294
v 958.3569 1.189183E-07 -3396.408
vn 0.3720509 0.9994736 0
vt 0.4010871 0.9390497
v 1060.208 1.192093E-07 -3766.809
vn 0.37129 1.002454 0
vt 0.3998396 0.9472439
v 1162.814 1.192093E-07 -4137.62
vn 0.3705907 1.004881 0
vt 0.3987494 0.9540027
v 1529.572 1.192093E-07 -3705.049
vn 0.3037973 1.002 0
vt 0.3471192 0.9535141
v 1683.041 1.192093E-07 -4079.518
vn 0.3032688 1.004531 0
vt 0.3458543 0.9605784
v 1977.398 1.192093E-07 -3607.02
vn 0.2341847 1.001247 0
vt 0.2928151 0.959198
v 2182.635 1.192093E-07 -3982.126
vn 0.2338406 1.003921 0
vt 0.2913374 0.9666715
v 106.2214 1.033768E-07 -255.4248
vn 0.5644779 0.001625772 0
vt 0.5191202 0.06345522
v 138.9057 9.126961E-08 -226.5687
vn 0.33643 -0.4733114 0
vt 0.4724374 -0.03103274
v 139.9085 9.452924E-08 -250.7885
vn 0.3764727 -0.05334261 0
vt 0.4733192 0.05411139
v 103.6797 1.080334E-07 -231.4921
vn 0.6059901 -0.3634676 0
vt 0.5244876 -0.01852459
v 71.09148 1.012813E-07 -261.6712
vn 0.7377164 0.06741671 0
vt 0.5649846 0.07716152
v 66.78934 1.164153E-07 -238.209
vn 0.8416626 -0.2371717 0
vt 0.5764735 -0.0003646016
v 108.5322 9.901123E-08 -279.8787
vn 0.5410188 0.2186566 0
vt 0.514807 0.1347346
v 141.0737 9.758514E-08 -275.5045
vn 0.398746 0.1868379 0
vt 0.4739025 0.1277655
v 74.96362 8.768176E-08 -285.4781
vn 0.6753468 0.2560399 0
vt 0.5555888 0.1445542
v 35.7062 9.313226E-08 -270.2778
vn 0.8825985 0.1453776 0
vt 0.6084235 0.09708616
v 29.23961 1.192093E-07 -246.9945
vn 1.028603 -0.1029039 0
vt 0.6259328 0.02378359
v 1.253111 8.381903E-08 -281.9949
vn 0.9884923 0.2332031 0
vt 0.6469005 0.1244814
v -7.964609 1.192093E-07 -258.1241
vn 1.160914 0.03112985 0
vt 0.6705995 0.05390191
v 10.69445 5.463759E-08 -304.8662
vn 0.8760449 0.3624883 0
vt 0.6265005 0.1832363
v 41.92972 7.103922E-08 -293.2883
vn 0.790682 0.3027664 0
vt 0.5936705 0.1596586
v 20.58306 3.787378E-08 -325.7387
vn 0.797334 0.4485283 0
vt 0.6086802 0.2307537
v 47.66703 5.691415E-08 -315.7531
vn 0.7289679 0.4103226 0
vt 0.5814499 0.2130482
v 29.03903 3.338964E-08 -340.8874
vn 0.7482895 0.4982447 0
vt 0.5956087 0.2622156
v 49.64827 4.672135E-08 -338.8739
vn 0.6930813 0.4921339 0
vt 0.5744784 0.2609989
v 77.9758 7.715102E-08 -309.9743
vn 0.6357155 0.3858215 0
vt 0.5483366 0.2043657
v 78.94131 6.921861E-08 -335.8731
vn 0.6124756 0.48276 0
vt 0.5440332 0.2589727
v 110.3811 9.522773E-08 -305.3748
vn 0.5271664 0.3648873 0
vt 0.5115966 0.198403
v 142.5636 1.002336E-07 -301.213
vn 0.4123903 0.3447338 0
vt 0.4740955 0.1932675
v 111.537 9.231735E-08 -332.4343
vn 0.5194156 0.4716067 0
vt 0.5095271 0.2564781
v 144.5406 1.022709E-07 -328.4101
vn 0.4209735 0.4579617 0
vt 0.4738357 0.2528064
v -2.147888 2.338654E-08 -342.9585
vn 0.8312795 0.5043872 0
vt 0.6274402 0.2621688
v 17.63715 1.971299E-08 -358.0251
vn 0.7552909 0.5451209 0
vt 0.6029477 0.2923695
v -17.47818 4.403086E-08 -321.7688
vn 0.9237083 0.433919 0
vt 0.6515535 0.2172598
v -23.46396 1.644043E-08 -367.2016
vn 0.8434017 0.566968 0
vt 0.6407592 0.3032078
v 2.510044 1.13893E-08 -384.2309
vn 0.7587258 0.6026819 0
vt 0.6108695 0.3340787
v -44.73655 3.996603E-08 -344.1876
vn 0.9454753 0.5079659 0
vt 0.6709709 0.2590612
v -63.18527 7.636845E-08 -317.4525
vn 1.082427 0.4171764 0
vt 0.7038878 0.2017058
v -31.08034 7.82311E-08 -297.5724
vn 1.050759 0.3260734 0
vt 0.6781186 0.1598346
v -80.22206 1.192093E-07 -288.8568
vn 1.283274 0.2769722 0
vt 0.7416155 0.1307389
v -43.81842 1.192093E-07 -271.8726
vn 1.240415 0.1584546 0
vt 0.7085609 0.08962193
v -119.0757 1.192093E-07 -309.6932
vn 1.302545 0.3845803 0
vt 0.7712514 0.1765176
v -96.95283 7.82311E-08 -342.0773
vn 1.095238 0.5017915 0
vt 0.7259028 0.2483109
v -162.2797 1.192093E-07 -334.9982
vn 1.308151 0.479965 0
vt 0.7986508 0.2258011
v -134.2741 8.381903E-08 -371.8888
vn 1.09825 0.5773821 0
vt 0.7456399 0.2977362
v -73.22899 4.319008E-08 -372.3144
vn 0.9526581 0.5783043 0
vt 0.6868824 0.3057929
v -104.652 5.349284E-08 -406.3724
vn 0.952867 0.6416073 0
vt 0.7007522 0.3548912
v -46.30334 2.002344E-08 -398.2575
vn 0.8458689 0.6281958 0
vt 0.6516374 0.3497012
v -71.79688 3.329478E-08 -436.0419
vn 0.8439566 0.6838264 0
vt 0.6610591 0.3983933
v -14.57495 1.466833E-08 -417.7596
vn 0.7576806 0.6589792 0
vt 0.6177214 0.3807889
v -34.09207 2.828892E-08 -458.4904
vn 0.754661 0.7101133 0
vt 0.6238269 0.4292776
v 23.55708 3.306195E-08 -428.6737
vn 0.6760832 0.6742254 0
vt 0.5826052 0.3993061
v 10.07888 4.353933E-08 -471.3108
vn 0.6732396 0.723402 0
vt 0.5863246 0.4480167
v 65.89629 6.251503E-08 -432.7517
vn 0.5958119 0.6796044 0
vt 0.5461493 0.4090502
v 58.48204 6.827759E-08 -476.3817
vn 0.5941118 0.7283569 0
vt 0.5480378 0.4582778
v 35.06304 3.041027E-08 -393.0115
vn 0.6787751 0.6190197 0
vt 0.5787238 0.3513039
v 44.60352 3.642506E-08 -363.8524
vn 0.6813634 0.5592272 0
vt 0.5749158 0.3058443
v 76.67346 6.341401E-08 -363.8878
vn 0.6022873 0.55931 0
vt 0.5432623 0.3098618
v 111.7692 9.057112E-08 -361.5783
vn 0.5159701 0.5538214 0
vt 0.5086139 0.3102677
v 147.1669 1.034932E-07 -357.592
vn 0.426213 0.5440388 0
vt 0.4730872 0.3078158
v 111.2736 8.993084E-08 -394.2133
vn 0.514765 0.621159 0
vt 0.5084311 0.3619493
v 150.4534 1.03988E-07 -390.1331
vn 0.4296803 0.6138039 0
vt 0.4720375 0.360507
v 72.03691 6.081892E-08 -395.6401
vn 0.5981154 0.6236696 0
vt 0.5444006 0.3594857
v 110.2463 9.033829E-08 -431.7457
vn 0.5145837 0.6782927 0
vt 0.50864 0.4125956
v 154.4106 1.038425E-07 -427.4075
vn 0.4322382 0.6725216 0
vt 0.4708472 0.4119734
v 108.8835 9.173527E-08 -475.5818
vn 0.5146849 0.7275859 0
vt 0.5089725 0.4624915
v 159.0492 1.03144E-07 -470.7896
vn 0.434379 0.7228833 0
vt 0.4696523 0.4625188
v 175.0571 8.533243E-08 -323.6528
vn 0.324424 0.4409428 0
vt 0.4399094 0.2472014
v 180.1431 8.777715E-08 -352.5965
vn 0.3381084 0.5311951 0
vt 0.4390917 0.3032184
v 187.2568 8.923234E-08 -384.8011
vn 0.3458687 0.6037822 0
vt 0.4369361 0.3568615
v 202.5401 5.390999E-08 -319.1894
vn 0.2320966 0.4240256 0
vt 0.4084961 0.2416423
v 209.9319 5.565299E-08 -346.7453
vn 0.2526037 0.5152575 0
vt 0.4072661 0.2965328
v 226.4435 2.041149E-08 -316.0465
vn 0.1490771 0.411517 0
vt 0.3807412 0.2382684
v 235.7679 1.935081E-08 -340.1917
vn 0.1711402 0.496149 0
vt 0.3783705 0.2878022
v 243.334 -3.449342E-09 -314.4984
vn 0.0901536 0.4051628 0
vt 0.3610712 0.2372934
v 256.1945 -1.288329E-08 -329.7981
vn 0.08979264 0.4627429 0
vt 0.3527598 0.2705394
v 250.4735 1.77598E-08 -367.7516
vn 0.1801043 0.5682145 0
vt 0.3719903 0.3377734
v 275.0837 -1.771453E-08 -353.8963
vn 0.09288946 0.5346019 0
vt 0.3423538 0.3175888
v 220.8686 5.678319E-08 -377.5596
vn 0.2631017 0.5893701 0
vt 0.403508 0.349769
v 196.1927 9.033829E-08 -421.4893
vn 0.3507511 0.6643347 0
vt 0.434118 0.4090528
v 234.6822 5.972106E-08 -413.0509
vn 0.2695645 0.6519885 0
vt 0.3987232 0.4023641
v 206.7452 9.173527E-08 -463.8839
vn 0.3545319 0.7158422 0
vt 0.4311858 0.4600269
v 250.9589 6.548362E-08 -453.9812
vn 0.2744642 0.7051599 0
vt 0.3937658 0.4537857
v 268.9684 2.188608E-08 -401.1529
vn 0.1867771 0.6330864 0
vt 0.3646964 0.3901642
v 298.1408 -1.327135E-08 -384.8552
vn 0.09857365 0.6038863 0
vt 0.331839 0.3701845
v 290.6776 3.236346E-08 -440.1982
vn 0.1923712 0.6890158 0
vt 0.3573645 0.4423002
v 324.8885 3.49246E-10 -421.6517
vn 0.1048081 0.6645645 0
vt 0.3217244 0.4235858
v 269.7554 -3.280325E-08 -312.4271
vn -0.003300548 0.3964541 0
vt 0.3300835 0.2365083
v 247.2674 -1.497877E-08 -298.1539
vn 0.02570137 0.3291213 0
vt 0.3497558 0.2010737
v 293.7112 -3.951654E-08 -334.5137
vn -0.007265568 0.478405 0
vt 0.314209 0.2847124
v 279.3764 -4.335824E-08 -290.625
vn -0.127535 0.2874805 0
vt 0.3072776 0.1876538
v 252.3627 -2.458304E-08 -276.6871
vn -0.08708936 0.1956843 0
vt 0.3332264 0.1478657
v 225.8888 6.700349E-09 -270.1671
vn -0.0002545118 0.1444543 0
vt 0.3640508 0.1259301
v 224.0924 1.46942E-08 -292.8895
vn 0.0949311 0.3005178 0
vt 0.3753833 0.1850871
v 199.3612 4.913373E-08 -293.4739
vn 0.1909151 0.3038082 0
vt 0.4053539 0.1829089
v 199.0713 4.278424E-08 -269.0622
vn 0.1203345 0.1351413 0
vt 0.39836 0.1186733
v 229.0068 9.313226E-10 -247.3257
vn -0.1561415 -0.09839706 0
vt 0.3490448 0.05737373
v 257.9008 -2.933666E-08 -254.0587
vn -0.2652299 -0.01398203 0
vt 0.3129874 0.08347946
v 232.7856 -3.72529E-09 -224.425
vn -0.4364363 -0.5267511 0
vt 0.3304431 -0.02297497
v 263.6605 -3.166497E-08 -230.8494
vn -0.574152 -0.3768857 0
vt 0.2886361 0.006398767
v 202.4044 2.980232E-08 -222.1561
vn -0.2151397 -0.5876146 0
vt 0.3753947 -0.03708303
v 200.3466 3.632158E-08 -245.4174
vn 0.002102196 -0.1248676 0
vt 0.388281 0.0463981
v 171.4625 6.332994E-08 -223.1637
vn 0.0552938 -0.560006 0
vt 0.4228165 -0.03854704
v 170.9654 6.984919E-08 -247.0122
vn 0.1862861 -0.1026616 0
vt 0.4298168 0.0468539
v 171.0265 7.5961E-08 -271.3702
vn 0.2572944 0.1543768 0
vt 0.4351459 0.1208632
v 172.2043 8.125789E-08 -296.7473
vn 0.2993818 0.3217011 0
vt 0.4385653 0.1869006
v 296.0832 -4.842877E-08 -242.3084
vn -0.6208786 -0.170764 0
vt 0.2508586 0.05190247
v 287.9833 -4.749745E-08 -266.9379
vn -0.3134196 0.1166735 0
vt 0.2812748 0.1264687
v 331.0727 -5.681068E-08 -258.6241
vn -0.6096001 0.03640994 0
vt 0.2170048 0.1091215
v 320.21 -5.564652E-08 -285.4958
vn -0.3197455 0.2561522 0
vt 0.2536486 0.1809763
v 369.6482 -5.960464E-08 -279.6188
vn -0.5722831 0.2168336 0
vt 0.1865495 0.1734439
v 355.5366 -5.587935E-08 -309.265
vn -0.3052988 0.3826796 0
vt 0.2293397 0.2417145
v 412.8287 -5.960464E-08 -305.1143
vn -0.5291147 0.3636605 0
vt 0.1587345 0.2407851
v 394.9189 -5.029142E-08 -337.778
vn -0.2846971 0.4887476 0
vt 0.2073432 0.3043195
v 339.9189 -4.901085E-08 -337.5764
vn -0.1294782 0.4881201 0
vt 0.2662396 0.2966407
v 375.3791 -3.870809E-08 -369.0298
vn -0.1180314 0.5710865 0
vt 0.2489659 0.3553082
v 308.1539 -5.103195E-08 -311.1861
vn -0.1361207 0.3911192 0
vt 0.2853833 0.2392021
v 321.289 -3.585592E-08 -363.2181
vn -0.002310932 0.5577314 0
vt 0.2996916 0.3391773
v 352.5789 -2.258457E-08 -397.4583
vn 0.005394608 0.6268246 0
vt 0.2863117 0.3947681
v 387.6709 -4.656613E-10 -436.1528
vn 0.01225296 0.6839669 0
vt 0.273701 0.4480837
v 354.8491 2.305023E-08 -463.2629
vn 0.1104822 0.7151932 0
vt 0.3122753 0.4746629
v 315.0262 4.982576E-08 -484.6902
vn 0.1976814 0.7361363 0
vt 0.3506234 0.4923267
v 269.2852 7.508788E-08 -501.1125
vn 0.27924 0.7503844 0
vt 0.3892867 0.5034289
v 343.454 7.014023E-08 -537.3654
vn 0.2028578 0.777398 0
vt 0.3442508 0.5416598
v 389.7104 4.973845E-08 -512.4468
vn 0.1162202 0.7594344 0
vt 0.3033248 0.5251817
v 377.4009 8.917414E-08 -600.9606
vn 0.2078655 0.8139528 0
vt 0.3381758 0.5904909
v 431.1604 7.532071E-08 -571.9611
vn 0.122198 0.798698 0
vt 0.294884 0.5755081
v 418.3064 1.027947E-07 -678.2123
vn 0.2125989 0.8461903 0
vt 0.3324178 0.6382523
v 480.8868 9.470386E-08 -644.5639
vn 0.1283448 0.8334231 0
vt 0.2870539 0.6251019
v 347.9496 1.036678E-07 -706.2177
vn 0.2913394 0.8556076 0
vt 0.3769206 0.6469495
v 316.6417 9.65083E-08 -624.5803
vn 0.2878121 0.8249575 0
vt 0.3809348 0.6003422
v 271.1772 1.013977E-07 -728.1013
vn 0.3664486 0.8623154 0
vt 0.4208541 0.6517553
v 250.1137 9.941868E-08 -642.7817
vn 0.3643038 0.8326969 0
vt 0.4234758 0.6059091
v 189.3498 1.00059E-07 -743.3845
vn 0.4395122 0.8666995 0
vt 0.4645575 0.6529959
v 179.0477 1.000008E-07 -655.5262
vn 0.4390169 0.8377746 0
vt 0.4660774 0.60774
v 103.8286 1.037261E-07 -751.5883
vn 0.5120206 0.8689586 0
vt 0.5084344 0.6507981
v 104.6747 1.0035E-07 -662.7752
vn 0.5133266 0.840547 0
vt 0.5090082 0.6061631
v 170.8852 1.007866E-07 -582.4242
vn 0.4379643 0.8044459 0
vt 0.4674014 0.5604693
v 105.9186 9.703217E-08 -588.7405
vn 0.5142083 0.8077787 0
vt 0.5092652 0.5594465
v 17.10893 1.102453E-07 -750.6575
vn 0.584823 0.8687055 0
vt 0.5525096 0.6444589
v 29.46633 1.008157E-07 -662.5287
vn 0.5876176 0.840454 0
vt 0.5519851 0.6003008
v -68.31356 1.174631E-07 -738.5372
vn 0.6598204 0.8653342 0
vt 0.5972877 0.6329547
v -44.10555 1.01747E-07 -652.7866
vn 0.6634817 0.8367054 0
vt 0.5952318 0.5889738
v -149.9433 1.232256E-07 -713.1718
vn 0.7403941 0.8577971 0
vt 0.6438387 0.6146725
v -113.5692 1.034932E-07 -631.5489
vn 0.7440687 0.8279919 0
vt 0.6395154 0.5704057
v -225.2847 1.253793E-07 -672.5063
vn 0.8325806 0.8441443 0
vt 0.6940677 0.5869105
v -176.453 1.064036E-07 -596.8155
vn 0.8352088 0.8118976 0
vt 0.6863394 0.5416822
v -82.71729 7.773633E-08 -563.2906
vn 0.7477609 0.7937065 0
vt 0.634722 0.5242969
v -135.5053 8.143252E-08 -533.433
vn 0.838163 0.7747243 0
vt 0.6782699 0.4946925
v -295.9099 1.248263E-07 -620.3658
vn 0.9467984 0.8230775 0
vt 0.7516137 0.548556
v -234.4017 1.101871E-07 -551.9602
vn 0.9475402 0.7868472 0
vt 0.7390835 0.5018213
v -363.3908 1.224689E-07 -560.5751
vn 1.097987 0.7920983 0
vt 0.820628 0.4978111
v -289.0605 1.145527E-07 -500.3572
vn 1.096268 0.7497597 0
vt 0.8014765 0.4491831
v -429.2997 1.192093E-07 -496.9594
vn 1.30979 0.7469141 0
vt 0.9060658 0.4323866
v -342.0743 1.192093E-07 -445.3802
vn 1.305642 0.6952712 0
vt 0.8778436 0.3817377
v -227.7897 1.040753E-07 -449.7136
vn 1.096401 0.7003279 0
vt 0.7827415 0.3989454
v -270.6091 1.192093E-07 -401.8529
vn 1.305181 0.6342509 0
vt 0.8508201 0.3295806
v -183.309 9.084761E-08 -494.5738
vn 0.9491549 0.7448811 0
vt 0.7264894 0.453397
v -56.51554 5.098991E-08 -506.3026
vn 0.7513333 0.754603 0
vt 0.6294865 0.4770904
v -101.0754 5.541369E-08 -480.4711
vn 0.8412058 0.732237 0
vt 0.6698677 0.4467397
v -140.7022 7.06641E-08 -446.585
vn 0.9512165 0.6966927 0
vt 0.7137895 0.4041811
v -177.0404 9.313226E-08 -407.3292
vn 1.097627 0.6431295 0
vt 0.7642863 0.3481472
v -211.7342 1.192093E-07 -365.3885
vn 1.307072 0.5628094 0
vt 0.8246944 0.2771772
v -5.378303 6.100163E-08 -521.3946
vn 0.6702496 0.7661732 0
vt 0.5897112 0.4958982
v -23.28345 8.166535E-08 -581.1461
vn 0.6669897 0.8037592 0
vt 0.592698 0.543044
v 40.39543 8.937786E-08 -588.9719
vn 0.5901254 0.8078988 0
vt 0.551044 0.5540997
v 107.3812 9.406358E-08 -527.1281
vn 0.5146367 0.7703165 0
vt 0.5092275 0.5113961
v 164.3799 1.019798E-07 -521.6536
vn 0.4363758 0.7663632 0
vt 0.4685613 0.5119239
v 50.02454 7.788185E-08 -527.689
vn 0.5922807 0.7707149 0
vt 0.5497063 0.5065958
v 218.7088 9.406358E-08 -513.2076
vn 0.3582171 0.7600209 0
vt 0.4285626 0.5095723
v 232.8946 9.679934E-08 -571.9954
vn 0.3615335 0.7987173 0
vt 0.4260315 0.5582832
v 290.7999 8.620555E-08 -557.0954
vn 0.2837415 0.790005 0
vt 0.3850475 0.552292
v 1012.26 1.030858E-07 -1811.989
vn 0.2329221 0.9716017 0
vt 0.3043932 0.8822088
v 853.4323 9.872019E-08 -1509.213
vn 0.2309257 0.9588023 0
vt 0.3079349 0.8518577
v 718.2239 9.732321E-08 -1250.573
vn 0.2281272 0.9422186 0
vt 0.3121224 0.8147271
v 612.3383 1.005828E-07 -1048.095
vn 0.2248141 0.9224632 0
vt 0.3167958 0.7734091
v 715.2354 1.005828E-07 -995.3292
vn 0.1464055 0.9157338 0
vt 0.2669199 0.7670298
v 530.5441 1.049484E-07 -891.8375
vn 0.2210504 0.8997012 0
vt 0.3218161 0.7293245
v 616.5783 1.034641E-07 -846.7784
vn 0.1405967 0.8912016 0
vt 0.2732448 0.7205665
v 497.096 1.011649E-07 -1093.162
vn 0.2992256 0.9276052 0
vt 0.36545 0.7770291
v 372.0971 1.029111E-07 -1128.464
vn 0.3703827 0.9312976 0
vt 0.4129189 0.7780069
v 239.9296 1.064036E-07 -1151.941
vn 0.4393259 0.9336069 0
vt 0.459513 0.7763321
v 103.1819 1.122244E-07 -1161.529
vn 0.507399 0.9345188 0
vt 0.505787 0.7718379
v 103.4747 1.097214E-07 -990.7914
vn 0.5087529 0.915115 0
vt 0.5066259 0.7330633
v 218.8058 1.036387E-07 -981.118
vn 0.4393665 0.9137728 0
vt 0.4611242 0.7367047
v -34.53723 1.189183E-07 -1154.879
vn 0.5758741 0.9338882 0
vt 0.5522342 0.7641406
v -13.58441 1.182634E-07 -987.1797
vn 0.578803 0.9146175 0
vt 0.5525076 0.7258368
v 103.5594 1.068693E-07 -857.5358
vn 0.510375 0.8933311 0
vt 0.5075656 0.6926048
v 202.2742 1.013977E-07 -848.4237
vn 0.4395003 0.8915316 0
vt 0.4628565 0.6954651
v 3.194817 1.157168E-07 -855.6569
vn 0.5818475 0.892964 0
vt 0.5526379 0.6858411
v -96.37646 1.250301E-07 -840.619
vn 0.6561225 0.8899517 0
vt 0.5988724 0.6742535
v -192.7114 1.318986E-07 -810.254
vn 0.7368552 0.8834419 0
vt 0.6476733 0.656348
v -129.6822 1.267763E-07 -967.999
vn 0.651777 0.9119011 0
vt 0.5997214 0.7142071
v -242.1295 1.327717E-07 -930.9651
vn 0.7312915 0.9062715 0
vt 0.6498297 0.6968095
v -169.6187 1.250301E-07 -1129.644
vn 0.6467264 0.9314163 0
vt 0.5997353 0.7525446
v -298.4536 1.291046E-07 -1083.475
vn 0.7230785 0.9265425 0
vt 0.6497191 0.7358506
v 296.8961 1.022127E-07 -830.489
vn 0.3679712 0.8878459 0
vt 0.4181766 0.6950154
v 385.8625 1.053559E-07 -804.658
vn 0.2942729 0.8821748 0
vt 0.3730274 0.6912633
v 434.2785 1.037843E-07 -930.2048
vn 0.2968796 0.9061502 0
vt 0.369175 0.7348161
v 329.7198 1.025037E-07 -960.4437
vn 0.3692284 0.9107951 0
vt 0.41549 0.737255
v 467.6105 1.068693E-07 -771.8572
vn 0.2169514 0.8742787 0
vt 0.3270371 0.6840364
v 540.5775 1.027947E-07 -733.0132
vn 0.1344824 0.8637501 0
vt 0.2799537 0.6729764
v 603.2004 8.917414E-08 -689.0523
vn 0.04514033 0.8499546 0
vt 0.231663 0.6575142
v 534.3297 7.532071E-08 -605.7513
vn 0.03610381 0.8162799 0
vt 0.2405728 0.6066323
v 476.6892 5.285256E-08 -537.6204
vn 0.02744505 0.7775695 0
vt 0.2506728 0.5541116
v 580.9197 4.746835E-08 -563.0656
vn -0.07103121 0.793574 0
vt 0.1906952 0.5824472
v 516.0452 2.392335E-08 -499.2738
vn -0.08444303 0.7488586 0
vt 0.203247 0.5258273
v 428.422 2.613524E-08 -481.9806
vn 0.01947013 0.733644 0
vt 0.2617815 0.501062
v 461.475 1.309672E-10 -447.3538
vn -0.09674418 0.6975934 0
vt 0.217331 0.4687715
v 415.2421 -2.153683E-08 -404.7808
vn -0.1077504 0.639048 0
vt 0.2326516 0.4120375
v 622.9408 1.396984E-08 -517.7977
vn -0.2026235 0.7635053 0
vt 0.1347753 0.5519953
v 551.2858 -9.313226E-09 -458.2566
vn -0.2249458 0.7098602 0
vt 0.149976 0.4899786
v 662.6777 -2.235174E-08 -471.2387
vn -0.3728614 0.7233303 0
vt 0.06960267 0.5146202
v 584.4688 -4.470348E-08 -415.9041
vn -0.4118049 0.6562556 0
vt 0.08769661 0.4457631
v 490.7556 -2.747402E-08 -409.9532
vn -0.2461964 0.6472435 0
vt 0.1673908 0.4275257
v 518.1501 -5.587935E-08 -371.1658
vn -0.4511738 0.5758064 0
vt 0.1088908 0.3763998
v 439.3127 -4.097819E-08 -370.5672
vn -0.2659075 0.5744935 0
vt 0.1866375 0.365665
v 461.633 -5.960464E-08 -334.933
vn -0.4900874 0.4797552 0
vt 0.1327387 0.3079636
v 754.8658 1.490116E-08 -539.261
vn -0.3355454 0.7786669 0
vt 0.05484456 0.5811025
v 707.7587 4.284084E-08 -590.8971
vn -0.1800986 0.8088939 0
vt 0.1220427 0.61204
v 658.0656 6.8394E-08 -641.254
vn -0.05704015 0.83207 0
vt 0.1799071 0.6373429
v 755.1808 8.62492E-08 -742.2075
vn -0.0424518 0.86637 0
vt 0.1704458 0.6919564
v 690.4431 9.679934E-08 -796.4638
vn 0.05449376 0.880279 0
vt 0.2235363 0.7081812
v 803.1995 1.005828E-07 -936.9261
vn 0.06364968 0.9072141 0
vt 0.2161449 0.7576646
v 879.9636 1.005828E-07 -874.295
vn -0.02804595 0.8965203 0
vt 0.1622237 0.7451936
v 949.261 1.005828E-07 -808.8455
vn -0.1345671 0.8831251 0
vt 0.1025102 0.7294428
v 1014.825 1.005828E-07 -741.9867
vn -0.2638472 0.866308 0
vt 0.03376195 0.7102102
v 813.8338 7.310882E-08 -685.3234
vn -0.1570604 0.8486774 0
vt 0.1113341 0.6715972
v 869.4445 5.867332E-08 -627.1254
vn -0.2987892 0.8260763 0
vt 0.04297027 0.6467553
v -453.3191 1.257285E-07 -631.6825
vn 1.101717 0.8280492 0
vt 0.8401033 0.5438778
v -535.4555 1.192093E-07 -557.5793
vn 1.317831 0.7902984 0
vt 0.9354085 0.480447
v -549.1973 1.257285E-07 -727.1354
vn 1.083524 0.8620303 0
vt 0.8478138 0.5940413
v -647.2196 1.192093E-07 -647.7159
vn 1.27915 0.8346946 0
vt 0.9432284 0.5397547
v -369.7629 1.30909E-07 -701.4119
vn 0.9470611 0.8540614 0
vt 0.7640033 0.5927448
v -449.946 1.309963E-07 -803.5098
vn 0.9374014 0.8819121 0
vt 0.7701932 0.6371868
v -641.3772 1.238659E-07 -860.3896
vn 1.03701 0.893885 0
vt 0.837575 0.6488433
v -751.27 1.192093E-07 -787.8455
vn 1.186207 0.8782314 0
vt 0.9189435 0.6109038
v -720.2111 1.215376E-07 -1044.901
vn 0.9685652 0.9220787 0
vt 0.8097076 0.7050811
v -834.285 1.192093E-07 -998.4441
vn 1.061963 0.9161547 0
vt 0.8668012 0.6858121
v -605.2441 1.234293E-07 -1104.505
vn 0.8786834 0.9288219 0
vt 0.75389 0.7261015
v -530.4447 1.276494E-07 -935.0704
vn 0.9141539 0.9069222 0
vt 0.7669766 0.6820561
v -488.4916 1.24448E-07 -1190.402
vn 0.7909865 0.9371619 0
vt 0.6985407 0.7507342
v -417.4328 1.296867E-07 -1014.025
vn 0.8102211 0.9182137 0
vt 0.7045354 0.7119699
v -348.2371 1.337612E-07 -873.7942
vn 0.8235277 0.8964272 0
vt 0.7054077 0.6712991
v -283.3669 1.33412E-07 -762.3937
vn 0.8303987 0.8718396 0
vt 0.7014066 0.6295872
v -558.951 1.213048E-07 -1410.244
vn 0.7674813 0.9532696 0
vt 0.6881132 0.7866026
v -668.3298 1.208973E-07 -1320.225
vn 0.8348814 0.9474147 0
vt 0.7325072 0.7676947
v -648.4742 1.197332E-07 -1642.185
vn 0.7553201 0.9650693 0
vt 0.6836622 0.8138246
v -776.7244 1.192093E-07 -1854.864
vn 0.7605411 0.9730436 0
vt 0.6902764 0.831584
v -924.3383 1.192093E-07 -2057.911
vn 0.770974 0.9789854 0
vt 0.700137 0.8445091
v -798.3904 1.194421E-07 -1575.102
vn 0.8197607 0.9620553 0
vt 0.7282723 0.8006924
v -909.0313 1.192093E-07 -1662.977
vn 0.8373489 0.9659486 0
vt 0.7425072 0.8076365
v -705.4502 1.199595E-07 -1510.09
vn 0.8012159 0.9588477 0
vt 0.7138442 0.7954434
v -882.9429 1.192093E-07 -1299.988
vn 0.9338552 0.9459706 0
vt 0.7996548 0.7552992
v -776.0508 1.201406E-07 -1294.126
vn 0.8895416 0.9455427 0
vt 0.7691334 0.7586105
# 363 verticies
f 1/1/1 2/2/2 3/3/3
f 2/2/2 1/1/1 4/4/4
f 5/5/5 4/4/4 1/1/1
f 4/4/4 5/5/5 6/6/6
f 3/3/3 7/7/7 1/1/1
f 7/7/7 3/3/3 8/8/8
f 9/9/9 1/1/1 7/7/7
f 1/1/1 9/9/9 5/5/5
f 10/10/10 6/6/6 5/5/5
f 6/6/6 10/10/10 11/11/11
f 12/12/12 11/11/11 10/10/10
f 11/11/11 12/12/12 13/13/13
f 10/10/10 14/14/14 12/12/12
f 14/14/14 10/10/10 15/15/15
f 15/15/15 5/5/5 9/9/9
f 5/5/5 15/15/15 10/10/10
f 15/15/15 16/16/16 14/14/14
f 16/16/16 15/15/15 17/17/17
f 9/9/9 17/17/17 15/15/15
f 17/17/17 18/18/18 16/16/16
f 18/18/18 17/17/17 19/19/19
f 20/20/20 19/19/19 17/17/17
f 17/17/17 9/9/9 20/20/20
f 7/7/7 20/20/20 9/9/9
f 19/19/19 20/20/20 21/21/21
f 8/8/8 22/22/22 7/7/7
f 22/22/22 21/21/21 20/20/20
f 20/20/20 7/7/7 22/22/22
f 22/22/22 8/8/8 23/23/23
f 23/23/23 24/24/24 22/22/22
f 21/21/21 22/22/22 24/24/24
f 24/24/24 23/23/23 25/25/25
f 26/26/26 11/11/11 13/13/13
f 11/11/11 26/26/26 27/27/27
f 28/28/28 27/27/27 26/26/26
f 27/27/27 28/28/28 29/29/29
f 30/30/30 29/29/29 28/28/28
f 29/29/29 30/30/30 31/31/31
f 32/32/32 31/31/31 30/30/30
f 31/31/31 32/32/32 33/33/33
f 33/33/33 34/34/34 31/31/31
f 34/34/34 33/33/33 35/35/35
f 35/35/35 36/36/36 34/34/34
f 36/36/36 35/35/35 37/37/37
f 37/37/37 38/38/38 36/36/36
f 38/38/38 37/37/37 39/39/39
f 40/40/40 36/36/36 38/38/38
f 36/36/36 40/40/40 41/41/41
f 41/41/41 34/34/34 36/36/36
f 42/42/42 41/41/41 40/40/40
f 41/41/41 42/42/42 43/43/43
f 2/2/2 43/43/43 42/42/42
f 43/43/43 2/2/2 4/4/4
f 4/4/4 44/44/44 43/43/43
f 44/44/44 4/4/4 6/6/6
f 45/45/45 43/43/43 44/44/44
f 43/43/43 45/45/45 41/41/41
f 34/34/34 41/41/41 45/45/45
f 45/45/45 31/31/31 34/34/34
f 31/31/31 45/45/45 29/29/29
f 44/44/44 29/29/29 45/45/45
f 6/6/6 27/27/27 44/44/44
f 29/29/29 44/44/44 27/27/27
f 27/27/27 6/6/6 11/11/11
f 39/39/39 46/46/46 38/38/38
f 46/46/46 39/39/39 47/47/47
f 47/47/47 48/48/48 46/46/46
f 48/48/48 47/47/47 49/49/49
f 50/50/50 46/46/46 48/48/48
f 46/46/46 50/50/50 51/51/51
f 51/51/51 38/38/38 46/46/46
f 38/38/38 51/51/51 40/40/40
f 52/52/52 40/40/40 51/51/51
f 40/40/40 52/52/52 42/42/42
f 53/53/53 42/42/42 52/52/52
f 42/42/42 53/53/53 2/2/2
f 52/52/52 54/54/54 53/53/53
f 54/54/54 52/52/52 55/55/55
f 55/55/55 51/51/51 50/50/50
f 51/51/51 55/55/55 52/52/52
f 55/55/55 56/56/56 54/54/54
f 56/56/56 55/55/55 57/57/57
f 50/50/50 57/57/57 55/55/55
f 57/57/57 58/58/58 56/56/56
f 58/58/58 57/57/57 59/59/59
f 59/59/59 60/60/60 58/58/58
f 60/60/60 59/59/59 61/61/61
f 61/61/61 62/62/62 60/60/60
f 62/62/62 61/61/61 63/63/63
f 64/64/64 61/61/61 59/59/59
f 61/61/61 64/64/64 65/65/65
f 65/65/65 63/63/63 61/61/61
f 66/66/66 65/65/65 64/64/64
f 65/65/65 66/66/66 67/67/67
f 68/68/68 67/67/67 66/66/66
f 67/67/67 68/68/68 69/69/69
f 69/69/69 70/70/70 67/67/67
f 70/70/70 69/69/69 71/71/71
f 72/72/72 67/67/67 70/70/70
f 67/67/67 72/72/72 65/65/65
f 63/63/63 65/65/65 72/72/72
f 63/63/63 73/73/73 62/62/62
f 73/73/73 63/63/63 74/74/74
f 72/72/72 74/74/74 63/63/63
f 74/74/74 75/75/75 73/73/73
f 75/75/75 74/74/74 76/76/76
f 77/77/77 76/76/76 74/74/74
f 74/74/74 72/72/72 77/77/77
f 70/70/70 77/77/77 72/72/72
f 76/76/76 77/77/77 78/78/78
f 71/71/71 79/79/79 70/70/70
f 79/79/79 78/78/78 77/77/77
f 77/77/77 70/70/70 79/79/79
f 79/79/79 71/71/71 80/80/80
f 80/80/80 81/81/81 79/79/79
f 78/78/78 79/79/79 81/81/81
f 81/81/81 80/80/80 82/82/82
f 83/83/83 73/73/73 75/75/75
f 73/73/73 83/83/83 84/84/84
f 84/84/84 62/62/62 73/73/73
f 62/62/62 84/84/84 85/85/85
f 86/86/86 84/84/84 83/83/83
f 84/84/84 86/86/86 87/87/87
f 87/87/87 85/85/85 84/84/84
f 88/88/88 87/87/87 86/86/86
f 87/87/87 88/88/88 89/89/89
f 90/90/90 89/89/89 88/88/88
f 89/89/89 90/90/90 91/91/91
f 91/91/91 92/92/92 89/89/89
f 92/92/92 91/91/91 93/93/93
f 94/94/94 89/89/89 92/92/92
f 89/89/89 94/94/94 87/87/87
f 85/85/85 87/87/87 94/94/94
f 85/85/85 60/60/60 62/62/62
f 60/60/60 85/85/85 95/95/95
f 94/94/94 95/95/95 85/85/85
f 95/95/95 58/58/58 60/60/60
f 58/58/58 95/95/95 96/96/96
f 97/97/97 96/96/96 95/95/95
f 95/95/95 94/94/94 97/97/97
f 92/92/92 97/97/97 94/94/94
f 96/96/96 97/97/97 98/98/98
f 93/93/93 99/99/99 92/92/92
f 99/99/99 98/98/98 97/97/97
f 97/97/97 92/92/92 99/99/99
f 99/99/99 93/93/93 100/100/100
f 100/100/100 101/101/101 99/99/99
f 98/98/98 99/99/99 101/101/101
f 101/101/101 100/100/100 102/102/102
f 103/103/103 58/58/58 96/96/96
f 58/58/58 103/103/103 56/56/56
f 104/104/104 56/56/56 103/103/103
f 56/56/56 104/104/104 54/54/54
f 105/105/105 96/96/96 98/98/98
f 96/96/96 105/105/105 103/103/103
f 106/106/106 103/103/103 105/105/105
f 103/103/103 106/106/106 104/104/104
f 107/107/107 54/54/54 104/104/104
f 54/54/54 107/107/107 53/53/53
f 3/3/3 53/53/53 107/107/107
f 53/53/53 3/3/3 2/2/2
f 107/107/107 8/8/8 3/3/3
f 8/8/8 107/107/107 108/108/108
f 108/108/108 104/104/104 106/106/106
f 104/104/104 108/108/108 107/107/107
f 108/108/108 23/23/23 8/8/8
f 23/23/23 108/108/108 109/109/109
f 106/106/106 109/109/109 108/108/108
f 109/109/109 25/25/25 23/23/23
f 25/25/25 109/109/109 110/110/110
f 111/111/111 110/110/110 109/109/109
f 109/109/109 106/106/106 111/111/111
f 105/105/105 111/111/111 106/106/106
f 110/110/110 111/111/111 112/112/112
f 113/113/113 112/112/112 111/111/111
f 111/111/111 105/105/105 113/113/113
f 98/98/98 113/113/113 105/105/105
f 113/113/113 98/98/98 101/101/101
f 101/101/101 114/114/114 113/113/113
f 112/112/112 113/113/113 114/114/114
f 114/114/114 101/101/101 102/102/102
f 115/115/115 116/116/116 117/117/117
f 116/116/116 115/115/115 118/118/118
f 119/119/119 118/118/118 115/115/115
f 118/118/118 119/119/119 120/120/120
f 117/117/117 121/121/121 115/115/115
f 121/121/121 117/117/117 122/122/122
f 123/123/123 115/115/115 121/121/121
f 115/115/115 123/123/123 119/119/119
f 124/124/124 120/120/120 119/119/119
f 120/120/120 124/124/124 125/125/125
f 126/126/126 125/125/125 124/124/124
f 125/125/125 126/126/126 127/127/127
f 124/124/124 128/128/128 126/126/126
f 128/128/128 124/124/124 129/129/129
f 129/129/129 119/119/119 123/123/123
f 119/119/119 129/129/129 124/124/124
f 129/129/129 130/130/130 128/128/128
f 130/130/130 129/129/129 131/131/131
f 123/123/123 131/131/131 129/129/129
f 131/131/131 132/132/132 130/130/130
f 132/132/132 131/131/131 133/133/133
f 134/134/134 133/133/133 131/131/131
f 131/131/131 123/123/123 134/134/134
f 121/121/121 134/134/134 123/123/123
f 133/133/133 134/134/134 135/135/135
f 122/122/122 136/136/136 121/121/121
f 136/136/136 135/135/135 134/134/134
f 134/134/134 121/121/121 136/136/136
f 136/136/136 122/122/122 137/137/137
f 137/137/137 138/138/138 136/136/136
f 135/135/135 136/136/136 138/138/138
f 138/138/138 137/137/137 139/139/139
f 132/132/132 140/140/140 130/130/130
f 140/140/140 132/132/132 141/141/141
f 133/133/133 141/141/141 132/132/132
f 142/142/142 130/130/130 140/140/140
f 130/130/130 142/142/142 128/128/128
f 141/141/141 143/143/143 140/140/140
f 143/143/143 141/141/141 144/144/144
f 145/145/145 140/140/140 143/143/143
f 140/140/140 145/145/145 142/142/142
f 146/146/146 142/142/142 145/145/145
f 142/142/142 146/146/146 147/147/147
f 148/148/148 147/147/147 146/146/146
f 147/147/147 148/148/148 149/149/149
f 149/149/149 126/126/126 147/147/147
f 126/126/126 149/149/149 127/127/127
f 147/147/147 128/128/128 142/142/142
f 128/128/128 147/147/147 126/126/126
f 146/146/146 150/150/150 148/148/148
f 150/150/150 146/146/146 151/151/151
f 145/145/145 151/151/151 146/146/146
f 151/151/151 152/152/152 150/150/150
f 152/152/152 151/151/151 153/153/153
f 154/154/154 153/153/153 151/151/151
f 151/151/151 145/145/145 154/154/154
f 143/143/143 154/154/154 145/145/145
f 153/153/153 154/154/154 155/155/155
f 144/144/144 156/156/156 143/143/143
f 156/156/156 155/155/155 154/154/154
f 154/154/154 143/143/143 156/156/156
f 155/155/155 156/156/156 157/157/157
f 158/158/158 157/157/157 156/156/156
f 157/157/157 158/158/158 159/159/159
f 156/156/156 144/144/144 158/158/158
f 160/160/160 159/159/159 158/158/158
f 159/159/159 160/160/160 161/161/161
f 162/162/162 161/161/161 160/160/160
f 161/161/161 162/162/162 163/163/163
f 164/164/164 158/158/158 144/144/144
f 158/158/158 164/164/164 160/160/160
f 144/144/144 165/165/165 164/164/164
f 165/165/165 144/144/144 141/141/141
f 141/141/141 133/133/133 165/165/165
f 135/135/135 165/165/165 133/133/133
f 165/165/165 135/135/135 166/166/166
f 166/166/166 164/164/164 165/165/165
f 138/138/138 166/166/166 135/135/135
f 166/166/166 138/138/138 167/167/167
f 139/139/139 167/167/167 138/138/138
f 167/167/167 139/139/139 168/168/168
f 168/168/168 169/169/169 167/167/167
f 169/169/169 168/168/168 170/170/170
f 171/171/171 167/167/167 169/169/169
f 167/167/167 171/171/171 166/166/166
f 164/164/164 166/166/166 171/171/171
f 169/169/169 162/162/162 171/171/171
f 171/171/171 160/160/160 164/164/164
f 160/160/160 171/171/171 162/162/162
f 170/170/170 172/172/172 169/169/169
f 172/172/172 170/170/170 173/173/173
f 173/173/173 174/174/174 172/172/172
f 174/174/174 173/173/173 175/175/175
f 163/163/163 172/172/172 174/174/174
f 172/172/172 163/163/163 162/162/162
f 162/162/162 169/169/169 172/172/172
f 176/176/176 168/168/168 139/139/139
f 168/168/168 176/176/176 177/177/177
f 177/177/177 170/170/170 168/168/168
f 170/170/170 177/177/177 178/178/178
f 178/178/178 173/173/173 170/170/170
f 179/179/179 177/177/177 176/176/176
f 177/177/177 179/179/179 180/180/180
f 180/180/180 178/178/178 177/177/177
f 181/181/181 180/180/180 179/179/179
f 180/180/180 181/181/181 182/182/182
f 183/183/183 182/182/182 181/181/181
f 182/182/182 183/183/183 184/184/184
f 184/184/184 185/185/185 182/182/182
f 185/185/185 184/184/184 186/186/186
f 187/187/187 182/182/182 185/185/185
f 182/182/182 187/187/187 180/180/180
f 178/178/178 180/180/180 187/187/187
f 187/187/187 188/188/188 178/178/178
f 188/188/188 175/175/175 173/173/173
f 173/173/173 178/178/178 188/188/188
f 188/188/188 187/187/187 189/189/189
f 185/185/185 189/189/189 187/187/187
f 189/189/189 190/190/190 188/188/188
f 175/175/175 188/188/188 190/190/190
f 190/190/190 189/189/189 191/191/191
f 186/186/186 192/192/192 185/185/185
f 192/192/192 191/191/191 189/189/189
f 189/189/189 185/185/185 192/192/192
f 192/192/192 186/186/186 193/193/193
f 193/193/193 194/194/194 192/192/192
f 191/191/191 192/192/192 194/194/194
f 194/194/194 193/193/193 195/195/195
f 183/183/183 196/196/196 184/184/184
f 196/196/196 183/183/183 197/197/197
f 198/198/198 184/184/184 196/196/196
f 184/184/184 198/198/198 186/186/186
f 197/197/197 199/199/199 196/196/196
f 199/199/199 197/197/197 200/200/200
f 197/197/197 201/201/201 200/200/200
f 201/201/201 197/197/197 202/202/202
f 183/183/183 202/202/202 197/197/197
f 202/202/202 183/183/183 181/181/181
f 181/181/181 203/203/203 202/202/202
f 203/203/203 181/181/181 179/179/179
f 204/204/204 202/202/202 203/203/203
f 202/202/202 204/204/204 201/201/201
f 205/205/205 200/200/200 201/201/201
f 200/200/200 205/205/205 206/206/206
f 207/207/207 206/206/206 205/205/205
f 206/206/206 207/207/207 208/208/208
f 205/205/205 209/209/209 207/207/207
f 209/209/209 205/205/205 210/210/210
f 210/210/210 201/201/201 204/204/204
f 201/201/201 210/210/210 205/205/205
f 210/210/210 211/211/211 209/209/209
f 211/211/211 210/210/210 212/212/212
f 204/204/204 212/212/212 210/210/210
f 212/212/212 116/116/116 211/211/211
f 116/116/116 212/212/212 117/117/117
f 213/213/213 117/117/117 212/212/212
f 212/212/212 204/204/204 213/213/213
f 203/203/203 213/213/213 204/204/204
f 117/117/117 213/213/213 122/122/122
f 179/179/179 214/214/214 203/203/203
f 214/214/214 122/122/122 213/213/213
f 213/213/213 203/203/203 214/214/214
f 214/214/214 179/179/179 176/176/176
f 176/176/176 137/137/137 214/214/214
f 122/122/122 214/214/214 137/137/137
f 137/137/137 176/176/176 139/139/139
f 215/215/215 206/206/206 208/208/208
f 206/206/206 215/215/215 216/216/216
f 217/217/217 216/216/216 215/215/215
f 216/216/216 217/217/217 218/218/218
f 219/219/219 218/218/218 217/217/217
f 218/218/218 219/219/219 220/220/220
f 221/221/221 220/220/220 219/219/219
f 220/220/220 221/221/221 222/222/222
f 222/222/222 223/223/223 220/220/220
f 223/223/223 222/222/222 224/224/224
f 225/225/225 220/220/220 223/223/223
f 220/220/220 225/225/225 218/218/218
f 199/199/199 218/218/218 225/225/225
f 218/218/218 199/199/199 216/216/216
f 200/200/200 216/216/216 199/199/199
f 216/216/216 200/200/200 206/206/206
f 225/225/225 196/196/196 199/199/199
f 196/196/196 225/225/225 198/198/198
f 223/223/223 198/198/198 225/225/225
f 224/224/224 226/226/226 223/223/223
f 198/198/198 223/223/223 226/226/226
f 226/226/226 224/224/224 227/227/227
f 227/227/227 193/193/193 226/226/226
f 193/193/193 227/227/227 195/195/195
f 226/226/226 186/186/186 198/198/198
f 186/186/186 226/226/226 193/193/193
f 228/228/228 195/195/195 227/227/227
f 195/195/195 228/228/228 229/229/229
f 230/230/230 195/195/195 229/229/229
f 195/195/195 230/230/230 194/194/194
f 231/231/231 194/194/194 230/230/230
f 194/194/194 231/231/231 191/191/191
f 229/229/229 232/232/232 230/230/230
f 232/232/232 229/229/229 233/233/233
f 233/233/233 234/234/234 232/232/232
f 234/234/234 233/233/233 235/235/235
f 235/235/235 236/236/236 234/234/234
f 236/236/236 235/235/235 237/237/237
f 238/238/238 234/234/234 236/236/236
f 234/234/234 238/238/238 239/239/239
f 239/239/239 232/232/232 234/234/234
f 240/240/240 239/239/239 238/238/238
f 239/239/239 240/240/240 241/241/241
f 242/242/242 241/241/241 240/240/240
f 241/241/241 242/242/242 243/243/243
f 244/244/244 243/243/243 242/242/242
f 243/243/243 244/244/244 245/245/245
f 245/245/245 246/246/246 243/243/243
f 246/246/246 245/245/245 247/247/247
f 248/248/248 245/245/245 244/244/244
f 245/245/245 248/248/248 249/249/249
f 249/249/249 247/247/247 245/245/245
f 250/250/250 249/249/249 248/248/248
f 249/249/249 250/250/250 251/251/251
f 252/252/252 251/251/251 250/250/250
f 251/251/251 252/252/252 253/253/253
f 254/254/254 253/253/253 252/252/252
f 253/253/253 254/254/254 255/255/255
f 255/255/255 256/256/256 253/253/253
f 256/256/256 255/255/255 257/257/257
f 258/258/258 255/255/255 254/254/254
f 255/255/255 258/258/258 259/259/259
f 259/259/259 257/257/257 255/255/255
f 260/260/260 259/259/259 258/258/258
f 259/259/259 260/260/260 261/261/261
f 262/262/262 261/261/261 260/260/260
f 261/261/261 262/262/262 263/263/263
f 263/263/263 264/264/264 261/261/261
f 264/264/264 263/263/263 265/265/265
f 266/266/266 261/261/261 264/264/264
f 261/261/261 266/266/266 259/259/259
f 257/257/257 259/259/259 266/266/266
f 257/257/257 267/267/267 256/256/256
f 267/267/267 257/257/257 268/268/268
f 266/266/266 268/268/268 257/257/257
f 268/268/268 159/159/159 267/267/267
f 159/159/159 268/268/268 157/157/157
f 269/269/269 157/157/157 268/268/268
f 268/268/268 266/266/266 269/269/269
f 264/264/264 269/269/269 266/266/266
f 157/157/157 269/269/269 155/155/155
f 265/265/265 270/270/270 264/264/264
f 270/270/270 155/155/155 269/269/269
f 269/269/269 264/264/264 270/270/270
f 270/270/270 265/265/265 271/271/271
f 271/271/271 153/153/153 270/270/270
f 155/155/155 270/270/270 153/153/153
f 153/153/153 271/271/271 152/152/152
f 161/161/161 267/267/267 159/159/159
f 267/267/267 161/161/161 272/272/272
f 272/272/272 256/256/256 267/267/267
f 256/256/256 272/272/272 273/273/273
f 273/273/273 253/253/253 256/256/256
f 253/253/253 273/273/273 251/251/251
f 274/274/274 251/251/251 273/273/273
f 251/251/251 274/274/274 249/249/249
f 247/247/247 249/249/249 274/274/274
f 274/274/274 275/275/275 247/247/247
f 276/276/276 247/247/247 275/275/275
f 275/275/275 175/175/175 276/276/276
f 175/175/175 275/275/275 174/174/174
f 277/277/277 174/174/174 275/275/275
f 275/275/275 274/274/274 277/277/277
f 273/273/273 277/277/277 274/274/274
f 277/277/277 273/273/273 272/272/272
f 174/174/174 277/277/277 163/163/163
f 272/272/272 163/163/163 277/277/277
f 163/163/163 272/272/272 161/161/161
f 247/247/247 276/276/276 246/246/246
f 190/190/190 276/276/276 175/175/175
f 276/276/276 190/190/190 278/278/278
f 278/278/278 246/246/246 276/276/276
f 246/246/246 278/278/278 279/279/279
f 279/279/279 243/243/243 246/246/246
f 243/243/243 279/279/279 241/241/241
f 280/280/280 241/241/241 279/279/279
f 241/241/241 280/280/280 239/239/239
f 232/232/232 239/239/239 280/280/280
f 280/280/280 230/230/230 232/232/232
f 230/230/230 280/280/280 231/231/231
f 279/279/279 231/231/231 280/280/280
f 231/231/231 279/279/279 278/278/278
f 278/278/278 191/191/191 231/231/231
f 191/191/191 278/278/278 190/190/190
f 281/281/281 59/59/59 57/57/57
f 59/59/59 281/281/281 64/64/64
f 57/57/57 50/50/50 281/281/281
f 282/282/282 64/64/64 281/281/281
f 64/64/64 282/282/282 66/66/66
f 283/283/283 66/66/66 282/282/282
f 66/66/66 283/283/283 68/68/68
f 282/282/282 49/49/49 283/283/283
f 49/49/49 282/282/282 48/48/48
f 48/48/48 281/281/281 50/50/50
f 281/281/281 48/48/48 282/282/282
f 284/284/284 68/68/68 283/283/283
f 68/68/68 284/284/284 285/285/285
f 286/286/286 285/285/285 284/284/284
f 285/285/285 286/286/286 287/287/287
f 288/288/288 283/283/283 49/49/49
f 283/283/283 288/288/288 284/284/284
f 49/49/49 289/289/289 288/288/288
f 289/289/289 49/49/49 47/47/47
f 47/47/47 290/290/290 289/289/289
f 290/290/290 47/47/47 39/39/39
f 39/39/39 291/291/291 290/290/290
f 291/291/291 39/39/39 37/37/37
f 292/292/292 290/290/290 291/291/291
f 290/290/290 292/292/292 293/293/293
f 293/293/293 289/289/289 290/290/290
f 37/37/37 294/294/294 291/291/291
f 294/294/294 37/37/37 35/35/35
f 295/295/295 291/291/291 294/294/294
f 291/291/291 295/295/295 292/292/292
f 296/296/296 293/293/293 292/292/292
f 293/293/293 296/296/296 297/297/297
f 244/244/244 297/297/297 296/296/296
f 297/297/297 244/244/244 242/242/242
f 296/296/296 248/248/248 244/244/244
f 248/248/248 296/296/296 298/298/298
f 298/298/298 292/292/292 295/295/295
f 292/292/292 298/298/298 296/296/296
f 298/298/298 250/250/250 248/248/248
f 250/250/250 298/298/298 299/299/299
f 295/295/295 299/299/299 298/298/298
f 299/299/299 252/252/252 250/250/250
f 252/252/252 299/299/299 300/300/300
f 301/301/301 300/300/300 299/299/299
f 299/299/299 295/295/295 301/301/301
f 294/294/294 301/301/301 295/295/295
f 300/300/300 301/301/301 302/302/302
f 35/35/35 303/303/303 294/294/294
f 303/303/303 302/302/302 301/301/301
f 301/301/301 294/294/294 303/303/303
f 303/303/303 35/35/35 33/33/33
f 33/33/33 304/304/304 303/303/303
f 302/302/302 303/303/303 304/304/304
f 304/304/304 33/33/33 32/32/32
f 242/242/242 305/305/305 297/297/297
f 305/305/305 242/242/242 240/240/240
f 240/240/240 306/306/306 305/305/305
f 306/306/306 240/240/240 238/238/238
f 307/307/307 305/305/305 306/306/306
f 305/305/305 307/307/307 308/308/308
f 308/308/308 297/297/297 305/305/305
f 297/297/297 308/308/308 293/293/293
f 289/289/289 293/293/293 308/308/308
f 288/288/288 308/308/308 307/307/307
f 308/308/308 288/288/288 289/289/289
f 307/307/307 284/284/284 288/288/288
f 284/284/284 307/307/307 286/286/286
f 306/306/306 286/286/286 307/307/307
f 238/238/238 309/309/309 306/306/306
f 286/286/286 306/306/306 309/309/309
f 309/309/309 238/238/238 236/236/236
f 236/236/236 310/310/310 309/309/309
f 310/310/310 236/236/236 237/237/237
f 309/309/309 287/287/287 286/286/286
f 287/287/287 309/309/309 310/310/310
f 237/237/237 311/311/311 310/310/310
f 311/311/311 237/237/237 312/312/312
f 235/235/235 312/312/312 237/237/237
f 312/312/312 235/235/235 313/313/313
f 313/313/313 314/314/314 312/312/312
f 314/314/314 313/313/313 315/315/315
f 233/233/233 313/313/313 235/235/235
f 313/313/313 233/233/233 316/316/316
f 316/316/316 315/315/315 313/313/313
f 229/229/229 316/316/316 233/233/233
f 316/316/316 229/229/229 228/228/228
f 228/228/228 317/317/317 316/316/316
f 315/315/315 316/316/316 317/317/317
f 317/317/317 228/228/228 318/318/318
f 227/227/227 318/318/318 228/228/228
f 318/318/318 227/227/227 224/224/224
f 315/315/315 319/319/319 314/314/314
f 319/319/319 315/315/315 320/320/320
f 317/317/317 320/320/320 315/315/315
f 320/320/320 321/321/321 319/319/319
f 321/321/321 320/320/320 322/322/322
f 323/323/323 322/322/322 320/320/320
f 320/320/320 317/317/317 323/323/323
f 318/318/318 323/323/323 317/317/317
f 322/322/322 323/323/323 324/324/324
f 224/224/224 325/325/325 318/318/318
f 325/325/325 324/324/324 323/323/323
f 323/323/323 318/318/318 325/325/325
f 325/325/325 224/224/224 222/222/222
f 222/222/222 326/326/326 325/325/325
f 324/324/324 325/325/325 326/326/326
f 326/326/326 222/222/222 221/221/221
f 327/327/327 319/319/319 321/321/321
f 319/319/319 327/327/327 328/328/328
f 328/328/328 314/314/314 319/319/319
f 314/314/314 328/328/328 329/329/329
f 329/329/329 312/312/312 314/314/314
f 312/312/312 329/329/329 311/311/311
f 330/330/330 311/311/311 329/329/329
f 311/311/311 330/330/330 331/331/331
f 331/331/331 310/310/310 311/311/311
f 310/310/310 331/331/331 287/287/287
f 332/332/332 287/287/287 331/331/331
f 287/287/287 332/332/332 285/285/285
f 69/69/69 285/285/285 332/332/332
f 285/285/285 69/69/69 68/68/68
f 332/332/332 71/71/71 69/69/69
f 71/71/71 332/332/332 333/333/333
f 333/333/333 331/331/331 330/330/330
f 331/331/331 333/333/333 332/332/332
f 333/333/333 80/80/80 71/71/71
f 80/80/80 333/333/333 334/334/334
f 330/330/330 334/334/334 333/333/333
f 334/334/334 82/82/82 80/80/80
f 82/82/82 334/334/334 335/335/335
f 336/336/336 335/335/335 334/334/334
f 334/334/334 330/330/330 336/336/336
f 335/335/335 336/336/336 337/337/337
f 328/328/328 337/337/337 336/336/336
f 337/337/337 328/328/328 327/327/327
f 336/336/336 329/329/329 328/328/328
f 329/329/329 336/336/336 330/330/330
f 338/338/338 262/262/262 260/260/260
f 262/262/262 338/338/338 339/339/339
f 340/340/340 339/339/339 338/338/338
f 339/339/339 340/340/340 341/341/341
f 260/260/260 342/342/342 338/338/338
f 342/342/342 260/260/260 258/258/258
f 343/343/343 338/338/338 342/342/342
f 338/338/338 343/343/343 340/340/340
f 344/344/344 341/341/341 340/340/340
f 341/341/341 344/344/344 345/345/345
f 346/346/346 345/345/345 344/344/344
f 345/345/345 346/346/346 347/347/347
f 344/344/344 348/348/348 346/346/346
f 348/348/348 344/344/344 349/349/349
f 349/349/349 340/340/340 343/343/343
f 340/340/340 349/349/349 344/344/344
f 349/349/349 350/350/350 348/348/348
f 350/350/350 349/349/349 351/351/351
f 343/343/343 351/351/351 349/349/349
f 351/351/351 32/32/32 350/350/350
f 32/32/32 351/351/351 304/304/304
f 352/352/352 304/304/304 351/351/351
f 351/351/351 343/343/343 352/352/352
f 342/342/342 352/352/352 343/343/343
f 304/304/304 352/352/352 302/302/302
f 258/258/258 353/353/353 342/342/342
f 353/353/353 302/302/302 352/352/352
f 352/352/352 342/342/342 353/353/353
f 353/353/353 258/258/258 254/254/254
f 254/254/254 300/300/300 353/353/353
f 302/302/302 353/353/353 300/300/300
f 300/300/300 254/254/254 252/252/252
f 30/30/30 350/350/350 32/32/32
f 350/350/350 30/30/30 354/354/354
f 354/354/354 348/348/348 350/350/350
f 348/348/348 354/354/354 355/355/355
f 28/28/28 354/354/354 30/30/30
f 354/354/354 28/28/28 356/356/356
f 356/356/356 355/355/355 354/354/354
f 26/26/26 356/356/356 28/28/28
f 356/356/356 26/26/26 357/357/357
f 13/13/13 357/357/357 26/26/26
f 357/357/357 13/13/13 358/358/358
f 358/358/358 359/359/359 357/357/357
f 359/359/359 358/358/358 360/360/360
f 361/361/361 357/357/357 359/359/359
f 357/357/357 361/361/361 356/356/356
f 355/355/355 356/356/356 361/361/361
f 362/362/362 359/359/359 360/360/360
f 359/359/359 362/362/362 363/363/363
f 361/361/361 363/363/363 355/355/355
f 363/363/363 361/361/361 359/359/359
f 347/347/347 363/363/363 362/362/362
f 363/363/363 347/347/347 346/346/346
f 346/346/346 355/355/355 363/363/363
f 355/355/355 346/346/346 348/348/348
# 664 elements
